<?xml version="1.0" encoding="utf-8"?>
<!-- Generator: Adobe Illustrator 22.0.1, SVG Export Plug-In . SVG Version: 6.00 Build 0)  -->
<svg version="1.1" id="Layer_1" xmlns="http://www.w3.org/2000/svg" xmlns:xlink="http://www.w3.org/1999/xlink" x="0px" y="0px"
	 viewBox="0 0 283.5 283.5" style="enable-background:new 0 0 283.5 283.5;" xml:space="preserve">
<style type="text/css">
	.st0{fill:#EFA71F;}
	.st1{fill:#FFC333;}
	.st2{fill:#C6C6C5;}
	.st3{fill:#999999;}
	.st4{fill:#848484;}
</style>
<g>
	<path class="st0" d="M188.3,283.5H95.2c-48.6,0-88-39.4-88-88V88c0-48.6,39.4-88,88-88h93.1c48.6,0,88,39.4,88,88v107.5
		C276.3,244.1,236.9,283.5,188.3,283.5z"/>
	<path class="st1" d="M188.3,269.1H95.2c-48.6,0-88-39.4-88-88V88c0-48.6,39.4-88,88-88h93.1c48.6,0,88,39.4,88,88v93.1
		C276.3,229.7,236.9,269.1,188.3,269.1z"/>
</g>
<g>
	<circle class="st2" cx="141.7" cy="134.5" r="73.1"/>
	<path class="st3" d="M190.8,126.5c0-27.1-22-46.1-49.1-46.1s-49.1,19-49.1,46.1s22,49.1,49.1,49.1S190.8,153.6,190.8,126.5z"/>
	<circle class="st4" cx="141.7" cy="134.5" r="49.1"/>
</g>
<g>
	<path class="st3" d="M51.3,64.3v30.1h-5V64.3h-4.8v30.1h-5V64.3h-4.8v30.1h-5V64.3h-5.3v42.4c0,7.3,4.4,13.6,10.7,16.3v81.3
		c0,4,3.2,7.2,7.2,7.2c4,0,7.2-3.2,7.2-7.2v-81.3c6.3-2.8,10.7-9,10.7-16.3V64.3H51.3z"/>
	<path class="st2" d="M51.3,60.3v30.1h-5V60.3h-4.8v30.1h-5V60.3h-4.8v30.1h-5V60.3h-5.3v42.4c0,7.3,4.4,13.6,10.7,16.3v81.3
		c0,4,3.2,7.2,7.2,7.2c4,0,7.2-3.2,7.2-7.2v-81.3c6.3-2.8,10.7-9,10.7-16.3V60.3H51.3z"/>
</g>
<g>
	<path class="st3" d="M259.7,108.8c0,7.3-4.4,13.6-10.7,16.3v81.3c0,4-3.2,7.2-7.2,7.2c-4,0-7.2-3.2-7.2-7.2v-81.3
		c-6.3-2.8-10.7-9-10.7-16.3V92.5h35.7V108.8"/>
	<line class="st3" x1="234.3" y1="96.5" x2="229.3" y2="96.5"/>
	<line class="st3" x1="244.2" y1="96.5" x2="239.2" y2="96.5"/>
	<line class="st3" x1="254" y1="96.5" x2="249" y2="96.5"/>
	<path class="st2" d="M259.7,104.8c0,7.3-4.4,13.6-10.7,16.3v81.3c0,4-3.2,7.2-7.2,7.2c-4,0-7.2-3.2-7.2-7.2v-81.3
		c-6.3-2.8-10.7-9-10.7-16.3V92.5h35.7V104.8z"/>
	<line class="st2" x1="234.3" y1="92.5" x2="229.3" y2="92.5"/>
	<line class="st2" x1="244.2" y1="92.5" x2="239.2" y2="92.5"/>
	<line class="st2" x1="254" y1="92.5" x2="249" y2="92.5"/>
</g>
<ellipse class="st2" cx="241.8" cy="92.5" rx="17.8" ry="30.1"/>
<path class="st3" d="M254.3,93.8c0-9-5.6-16.3-12.5-16.3c-6.9,0-12.5,7.3-12.5,16.3s5.6-3.8,12.5-3.8
	C248.7,90,254.3,102.7,254.3,93.8z"/>
</svg>
